0.626665	-0.012638	-8.142950	-1.753730	-1.945581
0.633332	-0.005160	-3.324512	-4.668775	-1.617308
0.639998	0.548184	353.198342	-58.069877	6.548485
0.646665	0.544772	351.000396	-34.501454	47.356935
0.653332	0.484813	312.368198	10.940154	32.666701
0.659998	0.610045	393.056126	86.235236	40.504218
0.666665	0.644092	414.992748	151.358782	35.292881
0.673332	0.707135	455.611535	94.194775	34.759438
0.679998	0.763224	491.750017	55.699571	27.722086
0.686665	0.775229	499.484917	71.432573	9.482418
0.693332	0.833810	537.229526	112.966903	-18.154047
0.699998	0.904266	582.624522	132.131846	-32.413388
0.706665	0.938050	604.392136	125.991626	-23.139687
0.713332	0.949137	611.535271	126.177693	-11.896347
0.719998	0.961470	619.481493	125.598816	-8.962410
0.726665	0.993680	640.234729	121.443317	-20.821261
0.733332	1.017953	655.873632	119.706692	-32.310802
0.739998	1.023594	659.508619	114.186699	-34.793363
0.746665	1.012049	652.069583	104.862663	-34.752329
0.753331	1.005160	647.631530	98.267615	-38.650566
0.759998	1.006144	648.265548	93.409195	-44.785158
0.766665	0.995648	641.502796	87.744485	-48.868047
0.773331	0.986595	635.669911	83.485614	-48.273053
0.779998	0.982134	632.795727	80.074382	-46.077731
0.786665	0.975509	628.526735	75.526074	-45.318602
0.793331	0.975181	628.315397	69.840690	-43.164314
0.799998	0.972425	626.540161	62.790814	-39.902106
0.806665	0.962388	620.073269	54.252404	-36.701449
0.813331	0.953992	614.663053	45.300514	-32.044082
0.819998	0.943758	608.069352	36.555367	-26.771202
0.826665	0.918501	591.796462	26.466406	-22.503658
0.833331	0.896656	577.721462	18.258790	-19.385066
0.839998	0.874220	563.266062	11.188252	-17.435946
0.846665	0.845487	544.753020	5.564900	-17.189741
0.853331	0.826528	532.537786	1.905587	-17.066638
0.859998	0.812031	523.196722	0.127616	-16.615263
0.866664	0.792154	510.389755	-0.678673	-17.579564
0.873331	0.778574	501.640440	1.078624	-18.338695
0.879998	0.770899	496.695167	3.869624	-18.625933
0.886664	0.761190	490.439620	6.743322	-19.426098
0.893331	0.761124	490.397345	9.803086	-18.749036
0.899998	0.764535	492.595230	13.028243	-17.107673
0.906664	0.762764	491.454017	14.806214	-16.676815
0.913331	0.766635	493.947777	16.563512	-15.999753
0.919998	0.774179	498.808504	17.803957	-15.384241
0.926664	0.773195	498.174504	18.320810	-16.389576
0.933331	0.779230	502.063092	19.850692	-16.984571
0.939998	0.787102	507.135165	21.070464	-17.066639
0.946664	0.794909	512.164976	21.525294	-18.174559
0.953331	0.806586	519.688551	22.579673	-18.687485
0.959998	0.827185	532.960465	23.034503	-18.954206
0.966664	0.846012	545.091175	21.008443	-20.944359
0.973331	0.872646	562.251679	18.114071	-22.996062
0.979998	0.905840	583.638902	14.123973	-24.206566
0.986664	0.932015	600.503549	5.999058	-30.115472
0.993331	0.966849	622.947455	0.747842	-30.074436
0.999997	1.003258	646.405771	-6.508760	-29.028065
1.006664	1.030417	663.904421	-17.135234	-29.110130
1.013331	1.062037	684.277238	-26.603957	-28.699786
1.019997	1.094050	704.903660	-34.914932	-27.653413
1.026664	1.119110	721.049767	-42.936467	-28.761329
1.033331	1.145809	738.252549	-50.213735	-28.617706
1.039997	1.171984	755.117195	-57.366957	-28.843390
1.046664	1.190353	766.952041	-64.168720	-29.807688
1.053331	1.206490	777.349801	-70.453630	-30.833536
1.059997	1.218692	785.211510	-77.482805	-30.915602
1.066664	1.218889	785.338314	-85.525007	-32.228690
1.073331	1.215281	783.013603	-93.112378	-32.639029
1.079997	1.206884	777.603375	-100.720422	-32.228688
1.086664	1.186482	764.458241	-108.597228	-33.069886
1.093331	1.161554	748.396654	-116.598076	-32.310756
1.099997	1.131639	729.122753	-122.614217	-31.982484
1.106664	1.089851	702.198489	-130.118886	-32.167139
1.113331	1.047079	674.640213	-133.219988	-23.406374
1.119997	0.979445	631.062683	-133.385381	-26.504448
1.126664	0.899674	579.665710	-150.317398	-26.689102
1.133331	0.834729	537.821148	-150.255376	-27.325133
1.139997	0.738689	475.941976	-146.658098	-16.184386
1.146664	0.636220	409.920664	-145.975855	-15.199571
1.153330	0.521943	336.291309	-136.548505	-8.634122
1.159997	0.400581	258.097161	-120.050637	-5.638639
1.166664	0.270823	174.492887	-93.897991	-2.704705
1.173330	0.164812	106.189336	-62.618168	-0.427317
1.179997	0.087993	56.694645	-27.327555	1.337148
1.186664	0.046730	30.108691	-11.036390	0.167675
1.193330	0.030265	19.499671	-4.503382	-1.658342
1.199997	0.019178	12.356547	-0.782049	-1.740410
1.206664	0.005139	3.311408	0.148285	-2.704712
1.213330	-0.002667	-1.718366	-0.244523	-2.766263
