0.759998	-0.007115	-4.634789	-4.358664	-1.637825
0.766665	0.393943	256.617870	-45.706794	8.292432
0.773331	0.553756	360.721765	-42.357597	46.885039
0.779998	0.449744	292.967541	-4.999560	34.390135
0.786665	0.562905	366.681373	51.523400	40.976111
0.793331	0.599890	390.773607	123.779463	40.340080
0.799998	0.631878	411.611314	109.927790	35.518569
0.806665	0.708638	461.613385	57.973723	33.466864
0.813331	0.730245	475.688366	55.575528	18.161134
0.819998	0.772615	503.288841	94.215461	-11.342388
0.826665	0.810249	527.803816	127.480157	-29.028077
0.833331	0.839448	546.824047	126.694543	-25.601731
0.839998	0.856967	558.236176	116.832977	-16.389580
0.846665	0.853009	555.657868	113.897249	-13.147887
0.853331	0.868387	565.675204	109.927815	-20.164716
0.859998	0.890253	579.919271	105.648271	-29.828241
0.866664	0.898818	585.498553	100.603784	-35.593528
0.873331	0.903036	588.245925	96.158847	-36.845067
0.879998	0.909005	592.134515	92.313459	-38.732634
0.886664	0.918803	598.516870	89.253689	-42.117945
0.893331	0.927433	604.138418	85.925155	-45.133948
0.899998	0.933662	608.196075	82.720666	-45.913595
0.906664	0.939437	611.957858	79.743592	-45.728942
0.913331	0.948326	617.748467	75.898205	-44.908261
0.919998	0.956761	623.243209	70.192147	-44.395335
0.926664	0.962731	627.131794	63.390362	-43.102763
0.933331	0.964483	628.273002	55.761614	-40.353480
0.939998	0.957086	623.454535	47.223206	-37.440061
0.946664	0.945017	615.592825	38.002555	-34.403540
0.953331	0.931196	606.589901	29.154040	-31.715807
0.959998	0.915494	596.361229	21.359906	-29.089626
0.966664	0.900830	586.808833	15.364419	-26.976370
0.973331	0.888631	578.862589	10.774771	-24.842597
0.979998	0.877990	571.930763	6.970738	-23.262784
0.986664	0.866505	564.449464	4.717263	-22.503653
0.993331	0.853787	556.165094	4.221085	-22.996062
0.999997	0.845807	550.966233	5.937033	-23.652607
1.006664	0.839642	546.950853	8.211182	-24.842595
1.013331	0.834387	543.527220	10.175221	-26.217237
1.019997	0.831272	541.498405	12.821504	-26.996885
1.026664	0.827184	538.835585	15.033631	-27.407225
1.033331	0.826600	538.455192	16.873624	-27.078953
1.039997	0.823681	536.553185	19.023730	-27.037919
1.046664	0.824849	537.314011	20.884398	-27.017402
1.053331	0.823097	536.172824	23.117200	-27.222573
1.059997	0.823616	536.510986	25.246631	-26.976368
1.066664	0.827833	539.258380	26.487077	-26.586544
1.073331	0.833089	542.682052	26.859210	-26.586544
1.079997	0.843147	549.233496	26.838537	-26.627578
1.086664	0.856059	557.644696	25.308654	-26.996884
1.093331	0.873383	568.930062	22.745066	-27.202054
1.099997	0.891487	580.722636	19.395864	-27.263604
1.106664	0.910952	593.402825	12.511394	-32.023556
1.113331	0.931975	607.097418	8.852081	-30.997703
1.119997	0.951571	619.862122	3.476819	-27.509806
1.126664	0.968701	631.020667	-6.053932	-26.012060
1.133331	0.981808	639.558648	-17.031865	-24.924654
1.139997	0.993487	647.166746	-27.513618	-24.062935
1.146664	1.005296	654.859389	-36.300095	-24.186034
1.153330	1.017430	662.763361	-44.590393	-24.329650
1.159997	1.029564	670.667339	-52.797993	-24.760504
1.166664	1.042281	678.951721	-59.124253	-25.663251
1.173330	1.053507	686.263960	-65.946689	-26.196691
1.179997	1.065575	694.125676	-69.998802	-26.955818
1.186664	1.076930	701.522447	-75.229335	-26.771163
1.193330	1.084846	706.679053	-81.514244	-27.325121
1.199997	1.091075	710.736704	-86.310621	-26.422370
1.206664	1.093411	712.258321	-90.982953	-26.176164
1.213330	1.089713	709.849074	-97.515948	-26.114613
1.219997	1.082186	704.946059	-102.291649	-26.032544
1.226664	1.067911	695.647245	-109.403515	-25.232380
1.233330	1.050068	684.023727	-115.771115	-25.581170
1.239997	1.032094	672.315666	-122.924326	-21.682939
1.246664	0.995823	648.688269	-121.022317	-25.109286
1.253330	0.937426	610.647712	-133.840209	-20.985361
1.259997	0.883960	575.819489	-137.024007	-25.150324
1.266663	0.814337	530.466737	-141.034766	-20.575027
1.273330	0.738745	481.225436	-142.771383	-16.779380
1.279997	0.649657	423.192589	-141.138136	-11.239782
1.286663	0.543504	354.043528	-137.892315	-7.526202
1.293330	0.427878	278.723518	-124.702292	-2.253325
1.299997	0.307061	200.022199	-102.829173	1.603875
1.306663	0.190916	124.364165	-71.776770	3.081099
1.313330	0.099427	64.767647	-41.075805	2.424552
1.319997	0.048427	31.545770	-11.822004	0.372846
1.326663	0.022992	14.977102	-5.764501	-1.063348
1.333330	0.014232	9.271056	-1.464293	-1.596791
1.339997	0.005213	3.395942	0.706485	-2.520058
1.346663	-0.002378	-1.549297	1.306033	-2.479024
1.353330	-0.010554	-6.874940	-0.740701	-2.232819
