0.739998	-0.009710	-6.325469	-0.430590	-1.719893
0.746665	0.063480	41.351715	-1.422945	4.291603
0.753331	0.629802	410.258679	-15.584685	42.309722
0.759998	0.475763	309.916557	1.450752	45.202628
0.766665	0.556805	362.708154	23.468650	48.300706
0.773331	0.624351	406.708204	60.413264	53.512043
0.779998	0.669317	435.999311	86.235234	50.249827
0.786665	0.710325	462.712142	70.915713	39.704052
0.793331	0.880780	573.747965	61.384949	10.015863
0.799998	0.935089	609.125596	115.406437	-3.730563
0.806665	0.926070	603.250457	144.474291	-1.227484
0.813331	0.949753	618.677977	126.611827	3.429887
0.819998	0.947677	617.325426	111.767794	5.727797
0.826665	0.938333	611.238969	112.656783	-9.249650
0.833331	0.939112	611.746195	107.219486	-25.499147
0.839998	0.923734	601.728886	96.303546	-33.623894
0.846665	0.902451	587.865258	87.020864	-37.399028
0.853331	0.891745	580.891181	79.309417	-41.666570
0.859998	0.889150	579.200502	73.396619	-46.406004
0.866664	0.890383	580.003582	68.641573	-48.478224
0.873331	0.894990	583.004553	65.023603	-47.698577
0.879998	0.898818	585.498316	62.294620	-45.380153
0.886664	0.908226	591.627055	57.580922	-42.507768
0.893331	0.921074	599.995955	51.585431	-39.430214
0.899998	0.931780	606.970038	44.887021	-35.778181
0.906664	0.938658	611.450356	38.147263	-30.772024
0.913331	0.938333	611.239018	31.490204	-25.971037
0.919998	0.929833	605.702018	25.287975	-22.688310
0.926664	0.918803	598.516600	20.016082	-20.698157
0.933331	0.904203	589.006491	16.253398	-19.508168
0.939998	0.890642	580.172659	13.669137	-19.302997
0.946664	0.877146	571.381097	11.312291	-19.426099
0.953331	0.864039	562.843141	10.319935	-19.282479
0.959998	0.851841	554.896929	10.733416	-19.774888
0.966664	0.841264	548.007402	11.994535	-20.492984
0.973331	0.833219	542.766298	14.144640	-21.046944
0.979998	0.824913	537.356130	16.894293	-21.949694
0.986664	0.820955	534.777863	19.623273	-22.442103
0.993331	0.816738	532.030531	21.897423	-22.072797
0.999997	0.816154	531.650163	23.902809	-22.503654
1.006664	0.815310	531.100730	25.804826	-22.770376
1.013331	0.817452	532.495587	27.210664	-22.996063
1.019997	0.819917	534.101784	27.810213	-23.426921
1.026664	0.827963	539.342958	27.975606	-23.426921
1.033331	0.839124	546.612951	27.045272	-22.975546
1.039997	0.854047	556.334441	25.515389	-22.462620
1.046664	0.873189	568.803291	22.352253	-21.970211
1.053331	0.893758	582.202019	14.992278	-25.232419
1.059997	0.914586	595.769813	11.415662	-23.098647
1.066664	0.933857	608.323183	6.143771	-19.241443
1.073331	0.952220	620.284809	-2.332602	-16.410091
1.079997	0.969155	631.316563	-12.380202	-15.220101
1.086664	0.986350	642.517383	-22.696563	-14.317349
1.093331	1.002377	652.957395	-30.924841	-13.763388
1.099997	1.015419	661.453119	-39.918058	-13.927522
1.106664	1.027163	669.103494	-50.523848	-14.830270
1.113331	1.038583	676.542534	-59.455039	-15.404745
1.119997	1.048705	683.136232	-66.980392	-16.964038
1.126664	1.058698	689.645396	-74.236982	-17.169207
1.133331	1.073751	699.451405	-80.149757	-17.415410
1.139997	1.084457	706.425524	-84.057151	-20.246760
1.146664	1.091854	711.243994	-90.176666	-21.621401
1.153330	1.096461	714.244966	-98.156843	-20.472446
1.159997	1.096072	713.991366	-102.167605	-20.923821
1.166664	1.092957	711.962523	-108.245769	-21.149509
1.173330	1.083743	705.960554	-115.357634	-21.744503
1.179997	1.064667	693.533959	-121.787256	-21.313646
1.186664	1.042216	678.909459	-127.472611	-20.759687
1.193330	1.012044	659.255155	-133.902231	-19.733836
1.199997	0.975124	635.205060	-140.455894	-19.856940
1.206664	0.916857	597.249064	-166.401775	-33.131470
1.213330	0.890967	580.384358	-151.123685	-16.184387
1.219997	0.797661	519.604100	-164.437745	-21.395724
1.226664	0.678272	441.832456	-157.181169	-17.292321
1.233330	0.566084	368.752524	-148.725499	-9.906185
1.239997	0.442282	288.106837	-127.472611	-5.495025
1.246664	0.312965	203.868514	-100.761770	-1.535237
1.253330	0.200519	130.619694	-62.721538	1.993694
1.259997	0.126095	82.139400	-27.679014	3.470921
1.266663	0.078080	50.861798	-19.347366	0.885772
1.273330	0.043690	28.460279	-12.566271	-1.494206
1.279997	0.017671	11.511207	-7.769886	-2.622643
1.286663	0.000931	0.606320	-5.557760	-2.048166
1.293330	-0.008153	-5.311061	-2.828782	-1.822478
