0.919998	-0.004144	-2.817308	-3.304286	-2.068683
0.926664	0.077427	52.637014	-14.282219	-1.124899
0.933331	0.614857	417.993829	-62.700864	22.880062
0.939998	0.335759	228.256637	-30.738772	42.001969
0.946664	0.323884	220.183612	-13.910082	45.961764
0.953331	0.388109	263.845503	8.790052	45.777110
0.959998	0.457868	311.269175	45.135102	40.811977
0.966664	0.485411	329.993484	84.064451	33.569450
0.973331	0.484727	329.528535	96.696340	32.810318
0.979998	0.523088	355.607351	80.115694	31.846016
0.986664	0.605592	411.695840	58.738661	24.152116
0.993331	0.696988	473.828548	59.296864	3.717126
0.999997	0.731432	497.244539	89.005570	-13.004269
1.006664	0.736095	500.414553	124.213622	-24.227091
1.013331	0.786083	534.397351	133.103508	-34.013717
1.019997	0.878349	597.121858	118.734980	-28.884458
1.026664	0.921249	626.286219	115.592511	-20.657126
1.033331	0.943445	641.375599	126.467112	-21.087983
1.039997	0.982490	667.919403	134.240593	-26.709652
1.046664	1.022530	695.139499	135.026213	-31.469605
1.053331	1.050446	714.117487	133.889136	-33.931649
1.059997	1.060269	720.795710	132.028464	-34.239404
1.066664	1.066176	724.811100	128.699927	-33.931649
1.073331	1.074631	730.559445	124.999255	-34.670262
1.079997	1.077243	732.334674	119.913415	-35.429392
1.086664	1.075502	731.151196	113.545780	-35.101120
1.093331	1.069409	727.009007	106.806011	-33.911132
1.099997	1.056912	718.513296	99.590738	-32.331320
1.106664	1.041928	708.326895	92.251422	-31.592707
1.113331	1.026136	697.591020	85.139522	-30.505304
1.119997	1.004499	682.882030	76.973244	-29.499970
1.126664	0.982863	668.173039	68.496855	-28.638254
1.133331	0.959485	652.280569	60.247884	-27.222578
1.139997	0.934367	635.204620	52.309026	-26.812238
1.146664	0.909933	618.593609	44.514889	-26.689135
1.153330	0.886618	602.743411	37.382324	-26.832755
1.159997	0.859634	584.399449	31.056051	-26.442931
1.166664	0.835138	567.746176	25.618764	-25.663283
1.173330	0.815242	554.220674	21.194508	-24.391227
1.179997	0.798953	543.146669	17.617890	-22.749864
1.186664	0.787637	535.454039	14.826888	-20.554540
1.193330	0.780425	530.551040	13.565768	-18.872143
1.199997	0.772902	525.436709	12.635434	-17.435950
1.206664	0.767866	522.013063	11.519033	-15.999757
1.213330	0.766436	521.040914	10.340610	-15.343211
1.219997	0.765255	520.237834	8.914099	-15.445796
1.226664	0.764198	519.519288	7.549609	-15.815103
1.233330	0.763762	519.223414	6.123098	-16.533199
1.239997	0.762395	518.293534	4.675912	-17.333364
1.246664	0.763638	519.138874	3.497490	-17.702671
1.253330	0.767866	522.013038	2.567156	-18.113011
1.259997	0.770726	523.957325	1.409408	-18.749039
1.266663	0.776321	527.761370	0.210311	-19.549204
1.273330	0.783907	532.917963	-0.678674	-20.246783
1.279997	0.788694	536.172538	-1.546985	-20.821260
1.286663	0.796714	541.625006	-3.056193	-21.149532
1.293330	0.807470	548.937230	-4.565400	-21.888145
1.299997	0.815988	554.727840	-6.488089	-23.119168
1.306663	0.825252	561.025657	-7.769881	-24.309156
1.313330	0.836133	568.422424	-9.093022	-26.073621
1.319997	0.848132	576.580003	-10.602229	-27.345676
1.326663	0.859821	584.526249	-12.049413	-28.761352
1.333330	0.875240	595.008529	-13.661991	-30.382197
1.339997	0.893146	607.181497	-16.184227	-32.167178
1.346663	0.912047	620.030745	-19.016575	-33.275098
1.353330	0.934367	635.204691	-22.117685	-34.321465
1.359997	0.956190	650.040501	-26.314520	-35.757657
1.366663	0.978511	665.214450	-30.283941	-36.250064
1.373330	1.002261	681.360546	-33.922576	-36.229546
1.379997	1.023338	695.689154	-38.036714	-36.044892
1.386663	1.044353	709.975490	-42.647029	-35.326795
1.393330	1.063938	723.289683	-47.650151	-34.854902
1.399996	1.081782	735.420392	-51.909006	-34.403526
1.406663	1.097636	746.198548	-55.051462	-32.680095
1.413330	1.112806	756.511766	-59.909864	-32.495441
1.419996	1.120889	762.006519	-67.269825	-33.582842
1.426663	1.126050	765.514712	-75.291354	-35.778164
1.433330	1.126920	766.106463	-83.085468	-38.588996
1.439996	1.120454	761.710673	-90.114641	-40.168807
1.446663	1.108268	753.426293	-96.502918	-40.845869
1.453330	1.091543	742.056397	-100.885814	-41.112591
1.459996	1.065492	724.346414	-103.986918	-39.655881
1.466663	1.027815	698.732448	-107.253415	-37.378491
1.473330	0.982614	668.004151	-112.732033	-34.629209
1.479996	0.929891	632.161528	-117.693799	-31.572170
1.486663	0.869831	591.331387	-123.420503	-28.268927
1.493330	0.801999	545.217858	-126.728347	-24.370691
1.499996	0.725836	493.440545	-127.327893	-18.666955
1.506663	0.643705	437.605611	-124.888359	-11.670646
1.513330	0.556475	378.304803	-116.701446	-4.982092
1.519996	0.460355	312.959834	-106.302410	1.070435
1.526663	0.361063	245.459284	-91.003627	4.989188
1.533329	0.266497	181.171071	-69.275211	5.953487
1.539996	0.169507	115.234476	-52.901365	4.394189
1.546663	0.085075	57.835852	-35.038980	1.644903
1.553329	0.033036	22.458362	-17.073218	-0.899211
1.559996	0.010777	7.326773	-1.484967	-3.751081
1.566663	0.002508	1.705262	1.905581	-4.510212
1.573329	0.000705	0.479519	2.298389	-4.284524
1.579996	-0.000973	-0.661690	4.407145	-3.956252
1.586663	-0.007253	-4.930658	-0.451264	-1.555757
