0.779998	-0.009004	-7.001741	-0.864745	-2.027649
0.786665	0.014260	11.088536	4.799952	-3.176604
0.793331	0.323647	251.672501	38.147256	-6.869672
0.799998	0.448881	349.055853	32.503228	11.677743
0.806665	0.418714	325.597620	38.023212	23.700739
0.813331	0.470677	366.004961	47.967453	25.034348
0.819998	0.538893	419.050178	68.517515	20.294907
0.826665	0.558461	434.266343	89.997924	18.325269
0.833331	0.573952	446.312475	95.703982	16.971143
0.839998	0.673204	523.492271	95.559263	3.717125
0.846665	0.780881	607.223526	122.001481	-8.080178
0.853331	0.801319	623.116017	148.650459	3.491438
0.859998	0.809689	629.625194	157.374954	2.280932
0.866664	0.853880	663.988443	160.682820	1.398698
0.873331	0.915247	711.708154	172.094960	-5.084689
0.879998	0.977973	760.484565	182.121935	-12.060485
0.886664	1.031186	801.864221	180.798788	-16.389581
0.893331	1.084020	842.948027	180.281933	-21.908665
0.899998	1.119568	870.590856	178.214516	-27.879124
0.906664	1.139027	885.722578	176.457211	-32.392872
0.913331	1.146202	891.301897	174.472491	-35.080603
0.919998	1.151692	895.570923	169.490016	-36.865585
0.926664	1.160389	902.333709	160.414057	-38.096607
0.933331	1.167183	907.617132	150.490460	-40.497100
0.939998	1.166422	907.025408	142.820348	-43.923444
0.946664	1.157236	899.882253	135.294957	-47.062549
0.953331	1.145061	890.414399	127.480130	-48.888565
0.959998	1.129896	878.621844	119.334518	-49.196320
0.966664	1.110926	863.870580	111.416323	-48.662877
0.973331	1.086575	844.934858	104.800600	-48.334605
0.979998	1.057712	822.490959	99.301281	-47.534440
0.986664	1.026240	798.018232	93.264436	-45.749459
0.993331	0.996182	774.644452	87.310288	-43.779824
0.999997	0.967646	752.454164	82.059061	-41.399848
1.006664	0.937913	729.333995	76.849183	-38.794185
1.013331	0.907583	705.748891	70.998409	-36.455243
1.019997	0.879047	683.558607	65.540443	-34.588193
1.026664	0.853391	663.608490	60.289219	-33.213552
1.033331	0.826377	642.601699	55.430804	-32.515972
1.039997	0.802298	623.877340	51.688791	-31.715808
1.046664	0.777621	604.688049	49.001158	-30.751507
1.053331	0.755226	587.273977	46.396221	-30.115478
1.059997	0.734680	571.296993	43.729262	-29.028075
1.066664	0.716417	557.095233	41.331067	-27.694468
1.073331	0.700763	544.922299	39.077590	-26.853269
1.079997	0.687826	534.862723	36.803440	-25.724832
1.086664	0.677064	526.493835	35.025468	-24.616912
1.093331	0.668150	519.562032	32.234465	-23.960366
1.099997	0.660757	513.813714	29.133351	-23.324338
1.106664	0.656355	510.390086	26.735157	-22.667792
1.113331	0.653093	507.854068	24.047525	-22.257451
1.119997	0.652332	507.262342	20.636301	-22.380553
1.126664	0.657116	510.981869	16.336091	-22.257450
1.133331	0.661573	514.447794	11.312289	-23.406404
1.139997	0.669128	520.322952	7.528932	-24.678460
1.146664	0.683260	531.312445	2.877264	-25.252937
1.153330	0.698697	543.316357	-2.746085	-25.991550
1.159997	0.718320	558.574846	-8.679544	-26.278788
1.166664	0.742127	577.087924	-13.972106	-25.950515
1.173330	0.769250	598.179314	-18.975231	-25.519657
1.179997	0.799744	621.891285	-24.205770	-24.883629
1.186664	0.831813	646.829010	-30.407989	-23.734674
1.193330	0.862959	671.048211	-35.886615	-22.996061
1.199997	0.897474	697.887994	-41.158500	-22.298481
1.206664	0.932479	725.108191	-45.727466	-21.518833
1.213330	0.965092	750.468640	-52.177771	-21.662452
1.219997	0.997923	775.998167	-58.607401	-22.113827
1.226664	1.028579	799.837008	-65.264444	-22.462616
1.233330	1.059073	823.549052	-73.161929	-22.913991
1.239997	1.087827	845.908548	-81.100761	-24.103979
1.246664	1.114570	866.704155	-90.404078	-24.247598
1.253330	1.138051	884.963719	-98.839084	-25.109314
1.259997	1.158271	900.687237	-108.266442	-25.971030
1.266663	1.176698	915.015934	-118.458736	-26.053098
1.273330	1.189961	925.329212	-128.258223	-26.237752
1.279997	1.198386	931.880676	-138.326470	-26.771196
1.286663	1.200343	933.402315	-148.870217	-28.063770
1.293330	1.196538	930.443586	-159.269243	-29.356343
1.299997	1.185775	922.074611	-169.544224	-30.607883
1.306663	1.168762	908.844873	-179.136961	-31.510633
1.313330	1.144248	889.782217	-187.344538	-32.700621
1.319997	1.110656	863.660897	-195.407396	-33.028894
1.326663	1.061410	825.366569	-188.212846	-28.104806
1.333330	1.026514	798.230842	-206.447308	-30.997709
1.339997	0.968571	753.173767	-204.524627	-35.039566
1.346663	0.909106	706.933184	-209.589754	-26.668616
1.353330	0.836216	650.252661	-206.033828	-25.458112
1.359997	0.750933	583.935224	-202.932729	-20.841778
1.366663	0.663040	515.589024	-192.388993	-16.923024
1.373330	0.566941	440.860523	-180.852903	-12.245138
1.379997	0.463775	360.637373	-161.564059	-7.136394
1.386663	0.356587	277.286545	-129.705405	0.065090
1.393330	0.248583	193.301792	-94.662931	3.101614
1.399996	0.147973	115.065440	-59.909868	3.245233
1.406663	0.089813	69.839701	-33.571122	3.163165
1.413330	0.060081	46.719635	-17.445351	2.834892
1.419996	0.037415	29.094287	-8.307412	2.937478
1.426663	0.021108	16.414182	-2.022493	1.173011
1.433330	0.009313	7.242240	1.822885	-1.186450
1.439996	-0.002590	-2.014234	1.843559	-1.740410
1.446663	-0.011559	-8.988290	-1.712382	-1.699376
