0.719998	-0.009904	-7.720280	-1.133508	-1.760927
0.726665	0.042852	33.405523	0.086262	0.803704
0.733331	0.439201	342.378223	1.719520	19.289589
0.739998	0.430634	335.699973	21.256524	42.104580
0.746665	0.471895	367.865285	51.709468	38.124259
0.753331	0.532893	415.415922	84.622658	40.319584
0.759998	0.556370	433.717619	102.485105	39.375794
0.766665	0.564286	439.888630	89.274339	36.031510
0.773331	0.576540	449.441075	63.245627	31.928098
0.779998	0.641930	500.415448	58.821379	17.012189
0.786665	0.732152	570.748233	89.915281	-13.701847
0.793331	0.748201	583.259277	120.719758	-26.442931
0.799998	0.731664	570.367731	124.441108	-29.705140
0.806665	0.749340	584.146859	118.280222	-35.306289
0.813331	0.787457	613.860806	117.122483	-40.086757
0.819998	0.836092	651.774655	122.869913	-45.687905
0.826665	0.883372	688.631797	128.700035	-50.283719
0.833331	0.920513	717.584953	132.690153	-52.971449
0.839998	0.963348	750.976207	132.648805	-49.237352
0.846665	1.014423	790.792088	131.180940	-44.149130
0.853331	1.047281	816.406151	128.596668	-40.763820
0.859998	1.064469	829.804935	123.283408	-37.583681
0.866664	1.085289	846.035573	120.740483	-35.511461
0.873331	1.088488	848.529314	116.068117	-31.264435
0.879998	1.091687	851.023073	110.982271	-25.293977
0.886664	1.097326	855.418836	106.682043	-23.857784
0.893331	1.088922	848.867322	100.872604	-23.242272
0.899998	1.069511	833.735545	96.055526	-21.559875
0.906664	1.050533	818.941882	92.520244	-23.262789
0.913331	1.028737	801.950291	87.806539	-25.170874
0.919998	0.995988	776.420772	83.382272	-24.986220
0.926664	0.976685	761.373508	79.681600	-27.571367
0.933331	0.943068	735.167722	75.815536	-30.156514
0.939998	0.917856	715.513367	71.742733	-30.813059
0.946664	0.899909	701.522834	69.075770	-34.485609
0.953331	0.881474	687.151890	65.974651	-37.050238
0.959998	0.857292	668.300667	64.010609	-38.035056
0.966664	0.847261	660.481169	62.604766	-37.952988
0.973331	0.835278	651.140055	59.669038	-36.229557
0.979998	0.820802	639.854685	56.629939	-31.079781
0.986664	0.817602	637.360877	54.066346	-28.207396
0.993331	0.817602	637.360821	50.179610	-24.575879
0.999997	0.806758	628.907384	46.954446	-19.159379
1.006664	0.809957	631.401124	44.514900	-17.887323
1.013331	0.802909	625.906375	41.310412	-16.081822
1.019997	0.801011	624.427006	38.932890	-15.384243
1.026664	0.805077	627.597032	37.258288	-14.460976
1.033331	0.798083	622.144566	34.777396	-16.307510
1.039997	0.800143	623.750712	32.110439	-18.995243
1.046664	0.802963	625.948617	28.967979	-23.160203
1.053331	0.803397	626.286770	25.887540	-26.196725
1.059997	0.809036	630.682554	23.117212	-26.258275
1.066664	0.815542	635.754629	19.830032	-28.822905
1.073331	0.816518	636.515448	14.310050	-29.458933
1.079997	0.823512	641.967916	10.195907	-30.402716
1.086664	0.832892	649.280148	7.239512	-29.192210
1.093331	0.838423	653.591412	3.290762	-29.582033
1.099997	0.846935	660.227362	-0.637314	-29.869271
1.106664	0.856261	667.497324	-3.490337	-29.294793
1.113331	0.863689	673.287922	-7.604479	-29.910303
1.119997	0.867485	676.246635	-11.677272	-31.223392
1.126664	0.875835	682.755790	-15.336584	-31.018221
1.133331	0.880498	686.390777	-20.753190	-32.741651
1.139997	0.889336	693.280331	-25.694292	-34.526632
1.146664	0.899692	701.353383	-29.705061	-34.854903
1.153330	0.910319	709.637761	-34.790881	-36.209026
1.159997	0.923061	719.570568	-39.525241	-37.440047
1.166664	0.939598	732.462088	-43.432639	-36.578330
1.173330	0.953261	743.113448	-49.448789	-36.988669
1.179997	0.973756	759.090470	-53.480230	-37.747798
1.186664	0.993547	774.518034	-57.987174	-35.511439
1.193330	1.016970	792.777486	-63.734560	-35.285750
1.199997	1.033561	805.711287	-68.758353	-35.655055
1.206664	1.052105	820.166703	-73.802820	-34.362480
1.213330	1.065117	830.310852	-80.687277	-34.629199
1.219997	1.079106	841.215809	-86.910163	-34.998505
1.226664	1.093583	852.501174	-92.347434	-33.172487
1.233330	1.098571	856.389770	-99.748739	-34.465058
1.239997	1.103234	860.024760	-106.922627	-36.639864
1.246664	1.106867	862.856671	-114.034492	-37.768300
1.253330	1.103885	860.531973	-122.469494	-40.250862
1.259997	1.098842	856.601113	-130.118882	-43.102729
1.266663	1.094180	852.966116	-137.375462	-44.477370
1.273330	1.075799	838.637504	-145.583046	-46.282869
1.279997	1.058828	825.407808	-152.674234	-46.139252
1.286663	1.037357	808.669927	-158.421608	-44.292719
1.293330	0.996420	776.758081	-163.445392	-41.851193
1.299997	0.947080	738.294813	-169.213440	-38.158127
1.306663	0.896384	698.774876	-172.541955	-31.120783
1.313330	0.833977	650.125238	-171.963083	-26.360832
1.319997	0.759153	591.796431	-176.635407	-22.031738
1.326663	0.678582	528.987335	-174.381940	-14.666121
1.333330	0.588739	458.950596	-163.734828	-9.557381
1.339997	0.493637	384.813991	-148.663476	-5.002603
1.346663	0.392734	306.154864	-128.485637	0.290792
1.353330	0.289878	225.974180	-105.950951	1.850082
1.359997	0.195048	152.049079	-75.167313	1.542322
1.366663	0.121525	94.734967	-46.327015	1.029393
1.373330	0.063619	49.593784	-26.893399	-1.473688
1.379997	0.036454	28.418010	-15.315922	-2.376439
1.386663	0.029569	23.050100	-6.612138	-1.473689
1.393330	0.020514	15.991509	-1.629686	-1.678859
1.399996	0.015851	12.356547	1.698841	-1.801961
1.406663	0.012381	9.651458	3.538834	-0.899211
1.413330	0.005874	4.579418	3.187374	-1.391620
1.419996	-3.551472E-5	-0.027685	1.574796	-1.453171
1.426663	-0.002638	-2.056502	0.417048	-1.678859
1.433330	-0.012615	-9.833630	-1.567663	-2.109717
